CS220A Code/Assignment 2/A2Q2/A2Q2_eight_bit_johnson_counter_output.txt
Time = 0 Clock = 0  Reset = 0  Output = 00000000
Time = 5 Clock = 1  Reset = 0  Output = 00000000
Time = 10 Clock = 0  Reset = 1  Output = 00000000
Time = 15 Clock = 1  Reset = 1  Output = 00000001
Time = 20 Clock = 0  Reset = 1  Output = 00000001
Time = 25 Clock = 1  Reset = 1  Output = 00000011
Time = 30 Clock = 0  Reset = 1  Output = 00000011
Time = 35 Clock = 1  Reset = 1  Output = 00000111
Time = 40 Clock = 0  Reset = 1  Output = 00000111
Time = 45 Clock = 1  Reset = 1  Output = 00001111
Time = 50 Clock = 0  Reset = 1  Output = 00001111
Time = 55 Clock = 1  Reset = 1  Output = 00011111
Time = 60 Clock = 0  Reset = 1  Output = 00011111
Time = 65 Clock = 1  Reset = 1  Output = 00111111
Time = 70 Clock = 0  Reset = 1  Output = 00111111
Time = 75 Clock = 1  Reset = 1  Output = 01111111
Time = 80 Clock = 0  Reset = 1  Output = 01111111
Time = 85 Clock = 1  Reset = 1  Output = 11111111
Time = 90 Clock = 0  Reset = 1  Output = 11111111
Time = 95 Clock = 1  Reset = 1  Output = 11111110
Time = 100 Clock = 0  Reset = 1  Output = 11111110
Time = 105 Clock = 1  Reset = 1  Output = 11111100
Time = 110 Clock = 0  Reset = 1  Output = 11111100
Time = 115 Clock = 1  Reset = 1  Output = 11111000
Time = 120 Clock = 0  Reset = 1  Output = 11111000
Time = 125 Clock = 1  Reset = 1  Output = 11110000
Time = 130 Clock = 0  Reset = 1  Output = 11110000
Time = 135 Clock = 1  Reset = 1  Output = 11100000
Time = 140 Clock = 0  Reset = 1  Output = 11100000
Time = 145 Clock = 1  Reset = 1  Output = 11000000
Time = 150 Clock = 0  Reset = 1  Output = 11000000
Time = 155 Clock = 1  Reset = 1  Output = 10000000
Time = 160 Clock = 0  Reset = 1  Output = 10000000
Time = 165 Clock = 1  Reset = 1  Output = 00000000
Time = 170 Clock = 0  Reset = 1  Output = 00000000
A1Q2_eight_bit_johnson_counter_tb.v:19: $finish called at 172 (1s)